this is a test
…
The following objects are masked from 'package:stats':

    filter, lag

The following objects are masked from 'package:base':

    intersect, setdiff, setequal, union

df <- system_fonts()
df |>
  group_by(family) |>
  count() |>
  arrange(desc(n))

# A tibble: 186 × 2
# Groups:   family [186]
   family                    n
   <chr>                 <int>
 1 Helvetica Neue           14
 2 Avenir                   12
 3 Avenir Next              12
 4 Avenir Next Condensed    12
 5 Hiragino Sans            10
 6 Skia                     10
 7 Apple SD Gothic Neo       9
 8 Gill Sans                 9
 9 Noto Sans Kannada         9
10 Noto Sans Myanmar         9
# ℹ 176 more rows
…
